<svg width="25" height="24" viewBox="0 0 25 24" fill="none" xmlns="http://www.w3.org/2000/svg">
<path d="M14.5065 14.1149L10.6895 14.3106L10.8852 10.4936L20.4767 1L24.0001 4.5234L14.5065 14.1149Z" stroke="#80809B" stroke-width="1.5" stroke-miterlimit="10" stroke-linecap="round" stroke-linejoin="round"/>
<path d="M10.8851 5.69727H4.13191C2.37021 5.69727 1 7.06748 1 8.82918V17.3441V22.5313H16.366C18.1277 22.5313 19.4979 21.1611 19.4979 19.3994V14.7015" stroke="#80809B" stroke-width="1.5" stroke-miterlimit="10" stroke-linecap="round" stroke-linejoin="round"/>
</svg>
