<svg width="23" height="22" viewBox="0 0 23 22" fill="none" xmlns="http://www.w3.org/2000/svg">
<path d="M16.6812 16.8646H18.607C20.441 16.8646 22 15.3974 22 13.4716V4.39301C22 2.55895 20.5327 1 18.607 1H4.39301C2.55895 1 1 2.46725 1 4.39301V13.4716V20.2576L7.32751 16.8646H11.5459" stroke="#54B7F9" stroke-width="1.5" stroke-miterlimit="10" stroke-linecap="round" stroke-linejoin="round"/>
</svg>
