<svg width="32" height="25" viewBox="0 0 32 25" fill="none" xmlns="http://www.w3.org/2000/svg">
<path d="M25.7836 12.0254V24.2547H6.52246V12.0254" stroke="#80809B" stroke-width="1.5" stroke-miterlimit="10" stroke-linecap="round" stroke-linejoin="round"/>
<path d="M0.81543 11.5151L15.6944 0.814453L31.1849 11.9227" stroke="#80809B" stroke-width="1.5" stroke-miterlimit="10" stroke-linecap="round" stroke-linejoin="round"/>
<path d="M18.6499 15.5918H13.3506V24.2542H18.6499V15.5918Z" stroke="#80809B" stroke-width="1.5" stroke-miterlimit="10" stroke-linecap="round" stroke-linejoin="round"/>
</svg>
