<svg width="12" height="20" viewBox="0 0 12 20" fill="none" xmlns="http://www.w3.org/2000/svg">
<path d="M11.3321 12.7425H7.35394L9.4476 17.8422C9.59344 18.1958 9.42679 18.5922 9.09345 18.7422L7.24976 19.5457C6.90608 19.6957 6.52065 19.5243 6.37481 19.1814L4.38533 14.3388L1.13543 17.6815C0.702338 18.1269 0 17.7835 0 17.1994V1.08646C0 0.471456 0.747038 0.171644 1.13539 0.604356L11.8008 11.5747C12.231 11.9939 11.9136 12.7425 11.3321 12.7425Z" fill="#8D939D"/>
</svg>
